…
This package aims to provide all the simple tools you need to dig into the julia package
ecosystem. See also https://github.com/JuliaEcosystem for alternatives.

# Features

It provides a summary data frame.
```julia
pkg> add https://github.com/LilithHafner/EcosystemExplorer.jl
[...]

julia> using EcosystemExplorer

julia> EcosystemExplorer.summary()
8099×6 DataFrame
  Row │ name              version    downloads  dependencies      dependents        uuid
      │ String            VersionN…  Int64      Array…            Array…            Base.UUID
──────┼──────────────────────────────────────────────────────────────────────────────────────────────
    1 │ MbedTLS           1.1.3          38822  ["MbedTLS_jll",…  ["MbedTLS_jll",…  739be429-bea8-5…
    2 │ ChainRulesCore    1.15.3         36850  ["Compat"]        ["Compat"]        d360d2e6-b24c-1…
    3 │ StaticArrays      1.5.2          36394  ["StaticArraysC…  ["StaticArraysC…  90137ffa-7385-5…
    4 │ StatsBase         0.33.21        36110  ["Missings", "S…  ["Missings", "S…  2913bbd2-ae8a-5…
    5 │ Parsers           2.3.2          35300  String[]          String[]          69de0a69-1ddd-5…
    6 │ LogExpFunctions   0.3.17         33457  ["ChainRulesCor…  ["ChainRulesCor…  2ab3a3ac-af41-5…
    7 │ Compat            4.1.0          32929  String[]          String[]          34da2185-b29b-5…
    8 │ SpecialFunctions  2.1.7          30799  ["LogExpFunctio…  ["LogExpFunctio…  276daf66-3868-5…
    9 │ ChangesOfVariab…  0.1.4          30637  ["ChainRulesCor…  ["ChainRulesCor…  9e997f8a-9a97-4…
  ⋮   │        ⋮              ⋮          ⋮             ⋮                 ⋮                 ⋮
 8091 │ EntityComponent…  0.0.1              0  String[]          String[]          a8343a65-b356-5…
 8092 │ HeuristicOptimi…  0.0.1              0  String[]          String[]          de832154-0e71-4…
 8093 │ Hygienic          0.0.1              0  String[]          String[]          60a53d29-03fa-4…
 8094 │ MarkableIntegers  0.0.1              0  String[]          String[]          0913cafa-90c8-5…
 8095 │ NumberUnions      0.0.1              0  String[]          String[]          fe510250-cf29-5…
 8096 │ OBOParse          0.0.1              0  String[]          String[]          afb48802-0cf5-5…
 8097 │ RTLSDR            0.0.1              0  String[]          String[]          71cfaeeb-f3e6-5…
 8098 │ RobotDescriptio…  0.0.1              0  String[]          String[]          498c179e-6d39-5…
 8099 │ Sabermetrics      0.0.1              0  String[]          String[]          415736d3-e371-4…
                                                                                    8081 rows omitted
```
…
